[
  {
    "name": "RN ten Doeschate",
    "economy": 4
  },
  {
    "name": "J Yadav",
    "economy": 4.142857142857143
  },
  {
    "name": "V Kohli",
    "economy": 5
  },
  {
    "name": "R Ashwin",
    "economy": 5.871794871794871
  },
  {
    "name": "S Nadeem",
    "economy": 6.142857142857143
  },
  {
    "name": "Parvez Rasool",
    "economy": 6.2
  },
  {
    "name": "Z Khan",
    "economy": 6.36
  },
  {
    "name": "MC Henriques",
    "economy": 6.56
  },
  {
    "name": "M Vijay",
    "economy": 7
  },
  {
    "name": "GB Hogg",
    "economy": 7.0476190476190474
  }
]